title,link,image_url,price,price_per_kg,bio_label
Alnatura Bio Marzipan Riegel Zartbitter 40G,https://www.edeka24.de/Lebensmittel/Suess-Salzig/Schokoriegel/Alnatura-Bio-Marzipan-Riegel-Zartbitter-40G.html?force_sid=m7vts69tv7lo4dl1ucps8ahpfq,https://www.edeka24.de/out/pictures/generated/product/1/224_224_90/bio_alnmarzipan_riegel_zb_40g.jpg,"1,29 €","32,25 €/kg",Bio
Balisto Korn 8ST 148G,https://www.edeka24.de/Lebensmittel/Suess-Salzig/Schokoriegel/Balisto-Korn-8ST-148G.html?force_sid=m7vts69tv7lo4dl1ucps8ahpfq,https://www.edeka24.de/out/pictures/generated/product/1/224_224_90/balisto_korn_8x185g.jpg,"2,69 €","18,18 €/kg",
Balisto Müsli 8ST 148G,https://www.edeka24.de/Lebensmittel/Suess-Salzig/Schokoriegel/Balisto-Muesli-8ST-148G.html?force_sid=m7vts69tv7lo4dl1ucps8ahpfq,https://www.edeka24.de/out/pictures/generated/product/1/224_224_90/balisto_msli_8x185g.jpg,"2,69 €","18,18 €/kg",
Balisto Yoberry 8ST 148G,https://www.edeka24.de/Lebensmittel/Suess-Salzig/Schokoriegel/Balisto-Yoberry-8ST-148G.html?force_sid=m7vts69tv7lo4dl1ucps8ahpfq,https://www.edeka24.de/out/pictures/generated/product/1/224_224_90/balisto_yoberry_8x185g.jpg,"2,69 €","18,18 €/kg",
Celebrations 186G,https://www.edeka24.de/Lebensmittel/Suess-Salzig/Schokoriegel/Celebrations-186G.html?force_sid=m7vts69tv7lo4dl1ucps8ahpfq,https://www.edeka24.de/out/pictures/generated/product/1/224_224_90/celebrations_kleine_packung_186g.jpg,"4,19 €","22,53 €/kg",
"duplo 18ST 327,6g",https://www.edeka24.de/Lebensmittel/Suess-Salzig/Schokoriegel/duplo-18ST-327-6g.html?force_sid=m7vts69tv7lo4dl1ucps8ahpfq,https://www.edeka24.de/out/pictures/generated/product/1/224_224_90/duplo_18st_3276g.jpg,"4,79 €","14,65 €/kg",
Duplo Original 10ST 182G,https://www.edeka24.de/Lebensmittel/Suess-Salzig/Schokoriegel/Duplo-Original-10ST-182G.html?force_sid=m7vts69tv7lo4dl1ucps8ahpfq,https://www.edeka24.de/out/pictures/generated/product/1/224_224_90/duplo_original_10st_182g.jpg,"2,99 €","16,43 €/kg",
Duplo White 10ST 182G,https://www.edeka24.de/Lebensmittel/Suess-Salzig/Schokoriegel/Duplo-White-10ST-182G.html?force_sid=m7vts69tv7lo4dl1ucps8ahpfq,https://www.edeka24.de/out/pictures/generated/product/1/224_224_90/duplo_white_10st_182g.jpg,"2,99 €","16,43 €/kg",
"Ferrero Hanuta Riegel Milch & Nuss 5ST 172,5G",https://www.edeka24.de/Lebensmittel/Suess-Salzig/Schokoriegel/Ferrero-Hanuta-Riegel-Milch-Nuss-5ST-172-5G.html?force_sid=m7vts69tv7lo4dl1ucps8ahpfq,https://www.edeka24.de/out/pictures/generated/product/1/224_224_90/hanuta_riegel_5st_1725g.jpg,"2,79 €","16,22 €/kg",
Ferrero Kinder Bueno 10ST 215G,https://www.edeka24.de/Lebensmittel/Suess-Salzig/Schokoriegel/Ferrero-Kinder-Bueno-10ST-215G.html?force_sid=m7vts69tv7lo4dl1ucps8ahpfq,https://www.edeka24.de/out/pictures/generated/product/1/224_224_90/ferrero_kinder_bueno_10st_215g.jpg,"3,99 €","18,56 €/kg",
Ferrero Yogurette Erdbeere 8ST 100G,https://www.edeka24.de/Lebensmittel/Suess-Salzig/Schokoriegel/Ferrero-Yogurette-Erdbeere-8ST-100G.html?force_sid=m7vts69tv7lo4dl1ucps8ahpfq,https://www.edeka24.de/out/pictures/generated/product/1/224_224_90/yogurette_erdbeere_100g.jpg,"1,39 €","13,90 €/kg",
Gut & Günstig Schokoriegel Peanut Power 6ST 300G,https://www.edeka24.de/Lebensmittel/Suess-Salzig/Schokoriegel/Gut-Guenstig-Schokoriegel-Peanut-Power-6ST-300G.html?force_sid=m7vts69tv7lo4dl1ucps8ahpfq,https://www.edeka24.de/out/pictures/generated/product/1/224_224_90/gut_amp_gnstig_schokoriegel_peanut_power_6st_300g.jpg,"1,89 €","6,30 €/kg",
"Kinder Country 9ST 211,5G",https://www.edeka24.de/Lebensmittel/Suess-Salzig/Schokoriegel/Kinder-Country-9ST-211-5G.html?force_sid=m7vts69tv7lo4dl1ucps8ahpfq,https://www.edeka24.de/out/pictures/generated/product/1/224_224_90/kinder_country_9st.jpg,"2,99 €","1,42 €/kg",
Kinder Riegel 10ST 210G,https://www.edeka24.de/Lebensmittel/Suess-Salzig/Schokoriegel/Kinder-Riegel-10ST-210G.html?force_sid=m7vts69tv7lo4dl1ucps8ahpfq,https://www.edeka24.de/out/pictures/generated/product/1/224_224_90/kinder_riegel_10st.jpg,"2,99 €","14,24 €/kg",
Kinder Riegel Big Pack 18ST 378G,https://www.edeka24.de/Lebensmittel/Suess-Salzig/Schokoriegel/Kinder-Riegel-Big-Pack-18ST-378G.html?force_sid=m7vts69tv7lo4dl1ucps8ahpfq,https://www.edeka24.de/out/pictures/generated/product/1/224_224_90/kinder_riegel_big_pack.jpg,"4,79 €","12,67 €/kg",
Kinder Schokolade 8ST 100G,https://www.edeka24.de/Lebensmittel/Suess-Salzig/Schokoriegel/Kinder-Schokolade-8ST-100G.html?force_sid=m7vts69tv7lo4dl1ucps8ahpfq,https://www.edeka24.de/out/pictures/generated/product/1/224_224_90/kinder_schokolade_100g.jpg,"1,39 €","13,90 €/kg",
KitKat 4ST 166G,https://www.edeka24.de/Lebensmittel/Suess-Salzig/Schokoriegel/KitKat-4ST-166G.html?force_sid=m7vts69tv7lo4dl1ucps8ahpfq,https://www.edeka24.de/out/pictures/generated/product/1/224_224_90/kitkat_4st_166g.jpg,"1,79 €","Niedrigster Preis: 2,49 €*",
KitKat Chunky 4ST 160G,https://www.edeka24.de/Lebensmittel/Suess-Salzig/Schokoriegel/KitKat-Chunky-4ST-160G.html?force_sid=m7vts69tv7lo4dl1ucps8ahpfq,https://www.edeka24.de/out/pictures/generated/product/1/224_224_90/kit_kat_chunky_milk_4st_160g.jpg,"1,79 €","Niedrigster Preis: 2,49 €*",
Knoppers Erdnuss Riegel 5ST 200G,https://www.edeka24.de/Lebensmittel/Suess-Salzig/Schokoriegel/Knoppers-Erdnuss-Riegel-5ST-200G.html?force_sid=m7vts69tv7lo4dl1ucps8ahpfq,https://www.edeka24.de/out/pictures/generated/product/1/224_224_90/knoppers_erdnuss_riegel_5st_200g.jpg,"2,29 €","11,45 €/kg",
Knoppers Kokos Riegel 5ST 200G,https://www.edeka24.de/Lebensmittel/Suess-Salzig/Schokoriegel/Knoppers-Kokos-Riegel-5ST-200G.html?force_sid=m7vts69tv7lo4dl1ucps8ahpfq,https://www.edeka24.de/out/pictures/generated/product/1/224_224_90/knopperskokosriegel.jpg,"2,29 €","11,45 €/kg",
Knoppers Milch-Haselnuss-Schnitte 8ST 200G,https://www.edeka24.de/Lebensmittel/Suess-Salzig/Schokoriegel/Knoppers-Milch-Haselnuss-Schnitte-8ST-200G.html?force_sid=m7vts69tv7lo4dl1ucps8ahpfq,https://www.edeka24.de/out/pictures/generated/product/1/224_224_90/knoppers_milchhaselnussschnitte_8st_200g.jpg,"2,29 €","11,45 €/kg",
Knoppers Nuss Riegel 5ST 200G,https://www.edeka24.de/Lebensmittel/Suess-Salzig/Schokoriegel/Knoppers-Nuss-Riegel-5ST-200G.html?force_sid=m7vts69tv7lo4dl1ucps8ahpfq,https://www.edeka24.de/out/pictures/generated/product/1/224_224_90/knoppersnussriegel.jpg,"2,29 €","11,45 €/kg",
Knoppers Nussriegel Dark 5ST 200G,https://www.edeka24.de/Lebensmittel/Suess-Salzig/Schokoriegel/Knoppers-Nussriegel-Dark-5ST-200G.html?force_sid=m7vts69tv7lo4dl1ucps8ahpfq,https://www.edeka24.de/out/pictures/generated/product/1/224_224_90/knoppersnrdark.jpg,"2,29 €","11,45 €/kg",
"Milka Nussini 5ST 157,5G",https://www.edeka24.de/Lebensmittel/Suess-Salzig/Schokoriegel/Milka-Nussini-5ST-157-5G.html?force_sid=m7vts69tv7lo4dl1ucps8ahpfq,https://www.edeka24.de/out/pictures/generated/product/1/224_224_90/milkanussini.jpg,"2,49 €","15,81 €/kg",
Nestle Lion Choco Snack Size 5ST 150G,https://www.edeka24.de/Lebensmittel/Suess-Salzig/Schokoriegel/Nestle-Lion-Choco-Snack-Size-5ST-150G.html?force_sid=m7vts69tv7lo4dl1ucps8ahpfq,https://www.edeka24.de/out/pictures/generated/product/1/224_224_90/nestle_lion_choco_snack_size_5st_150g.jpg,"1,79 €","Niedrigster Preis: 2,49 €*",
Nestlé Nesquik Mini Bag 175G,https://www.edeka24.de/Lebensmittel/Suess-Salzig/Schokoriegel/Nestl-Nesquik-Mini-Bag-175G.html?force_sid=m7vts69tv7lo4dl1ucps8ahpfq,https://www.edeka24.de/out/pictures/generated/product/1/224_224_90/nesquik_mini_bag_175g.jpg,"3,99 €","22,80 €/kg",
Nestlé Nuts 5ST 150G,https://www.edeka24.de/Lebensmittel/Suess-Salzig/Schokoriegel/Nestl-Nuts-5ST-150G.html?force_sid=m7vts69tv7lo4dl1ucps8ahpfq,https://www.edeka24.de/out/pictures/generated/product/1/224_224_90/nestle_nuts_5x30g.jpg,"1,79 €","Niedrigster Preis: 2,49 €*",
Ritter Sport Schokowuerfel Dankeschön 176G,https://www.edeka24.de/Lebensmittel/Suess-Salzig/Schokoriegel/Ritter-Sport-Schokowuerfel-Dankeschoen-176G.html?force_sid=m7vts69tv7lo4dl1ucps8ahpfq,https://www.edeka24.de/out/pictures/generated/product/1/224_224_90/rsschokowrfel.jpg,"3,49 €","19,83 €/kg",
Veganz Bio Protein Choc Bar Chocolate Brownie Style 50G,https://www.edeka24.de/Lebensmittel/Suess-Salzig/Schokoriegel/Veganz-Bio-Protein-Choc-Bar-Chocolate-Brownie-Style-50G.html?force_sid=m7vts69tv7lo4dl1ucps8ahpfq,https://www.edeka24.de/out/pictures/generated/product/1/224_224_90/veganzproteinchocbar.jpg,"2,19 €","43,80 €/kg",Bio
YFood Riegel Brownie & Roasted Nuts 60G,https://www.edeka24.de/Lebensmittel/Suess-Salzig/Schokoriegel/YFood-Riegel-Brownie-Roasted-Nuts-60G.html?force_sid=m7vts69tv7lo4dl1ucps8ahpfq,https://www.edeka24.de/out/pictures/generated/product/1/224_224_90/yfood_riegel_brownie_roasted_nuts_60g.jpg,"2,99 €","49,83 €/kg",
